<svg width="26" height="26" viewBox="0 0 26 26" fill="none" xmlns="http://www.w3.org/2000/svg">
<path d="M12.9877 15.9193L3.47515 25.4318C3.08087 25.8261 2.60457 26.0154 2.04627 25.9996C1.48796 25.9822 1.01167 25.7764 0.617381 25.3821C0.223097 24.9878 0.0259553 24.5037 0.0259553 23.9296C0.0259553 23.3539 0.223097 22.869 0.617381 22.4747L10.0802 13.0119L0.567702 3.49937C0.173418 3.10508 -0.015838 2.6209 -6.66737e-05 2.04682C0.0172818 1.47117 0.223097 0.986199 0.617381 0.591914C1.01167 0.19763 1.49585 0.000488281 2.06992 0.000488281C2.64558 0.000488281 3.13055 0.19763 3.52483 0.591914L12.9877 10.1044L22.5001 0.591914C22.8944 0.19763 23.3786 0.000488281 23.9527 0.000488281C24.5283 0.000488281 25.0133 0.19763 25.4076 0.591914C25.8019 0.986199 25.999 1.47117 25.999 2.04682C25.999 2.6209 25.8019 3.10508 25.4076 3.49937L15.8951 13.0119L25.4076 22.5244C25.8019 22.9186 25.999 23.3949 25.999 23.9532C25.999 24.5116 25.8019 24.9878 25.4076 25.3821C25.0133 25.7764 24.5283 25.9736 23.9527 25.9736C23.3786 25.9736 22.8944 25.7764 22.5001 25.3821L12.9877 15.9193Z" fill="#ABA9A9"/>
</svg>
